{"items":[{"id":"f7f264fc-0e2c-4a41-a080-e14361203f9c","title":"Завершение земляных работ в г. Бахчисарай (№38)","slug":"zavershenie-zemlyanyh-rabot-v-g-bahchisarai-38-38","excerpt":"Очередное достижение нашей команды — ещё один объект сдан в срок. Подробности — в нашем материале.","content":"## Завершение земляных работ\n\nОчередное достижение нашей команды — ещё один объект сдан в срок. Объект расположен в городе Бахчисарай и реализован с применением современных строительных технологий.\n\nНад проектом работала команда из более чем 30 специалистов. Сроки реализации были соблюдены, а качество выполненных работ подтверждено независимой экспертизой.\n\n### Ключевые показатели\n\n- Общая площадь: 16126 м²\n- Срок работ: 6 мес.\n- Количество подрядчиков: 5\n\nМы благодарим всех партнёров и заказчиков за доверие. Впереди — новые амбициозные задачи.","imageId":"e53d89de-ac5c-4259-9c7c-6c624c325c25","published":true,"publishedAt":"2026-04-16T23:31:05.170Z","createdAt":"2026-05-11T23:31:05.270Z","updatedAt":"2026-05-11T23:31:05.270Z","image":{"id":"e53d89de-ac5c-4259-9c7c-6c624c325c25","createdAt":"2026-05-11T23:31:05.269Z","updatedAt":"2026-05-11T23:31:05.269Z","filename":"news-38.webp","originalName":"news-38.webp","mimeType":"image/webp","size":0,"path":"/seed/news-38.webp","url":"https://picsum.photos/seed/news-38/1200/800","uploadedById":null}},{"id":"145890b1-84b7-450b-881e-5757881384ac","title":"Введение в строй инженерных сетей в г. Ялта (№24)","slug":"vvedenie-v-stroi-inzhenernyh-setei-v-g-yalta-24-24","excerpt":"Подведены итоги очередного квартала: показатели превзошли план. Подробности — в нашем материале.","content":"## Введение в строй инженерных сетей\n\nПодведены итоги очередного квартала: показатели превзошли план. Объект расположен в городе Ялта и реализован с применением современных строительных технологий.\n\nНад проектом работала команда из более чем 30 специалистов. Сроки реализации были соблюдены, а качество выполненных работ подтверждено независимой экспертизой.\n\n### Ключевые показатели\n\n- Общая площадь: 20925 м²\n- Срок работ: 15 мес.\n- Количество подрядчиков: 7\n\nМы благодарим всех партнёров и заказчиков за доверие. Впереди — новые амбициозные задачи.","imageId":"f246c317-777c-4c7c-a3f3-89c31a72a2ea","published":true,"publishedAt":"2026-04-07T23:31:05.170Z","createdAt":"2026-05-11T23:31:05.236Z","updatedAt":"2026-05-11T23:31:05.236Z","image":{"id":"f246c317-777c-4c7c-a3f3-89c31a72a2ea","createdAt":"2026-05-11T23:31:05.235Z","updatedAt":"2026-05-11T23:31:05.235Z","filename":"news-24.webp","originalName":"news-24.webp","mimeType":"image/webp","size":0,"path":"/seed/news-24.webp","url":"https://picsum.photos/seed/news-24/1200/800","uploadedById":null}},{"id":"5905c486-fb62-4a56-ba8d-7cd231f1759e","title":"Обновление парка спецтехники в г. Симферополь (№36)","slug":"obnovlenie-parka-spectehniki-v-g-simferopol-36-36","excerpt":"Очередное достижение нашей команды — ещё один объект сдан в срок. Подробности — в нашем материале.","content":"## Обновление парка спецтехники\n\nОчередное достижение нашей команды — ещё один объект сдан в срок. Объект расположен в городе Симферополь и реализован с применением современных строительных технологий.\n\nНад проектом работала команда из более чем 30 специалистов. Сроки реализации были соблюдены, а качество выполненных работ подтверждено независимой экспертизой.\n\n### Ключевые показатели\n\n- Общая площадь: 1440 м²\n- Срок работ: 19 мес.\n- Количество подрядчиков: 7\n\nМы благодарим всех партнёров и заказчиков за доверие. Впереди — новые амбициозные задачи.","imageId":"789e7ea9-d183-48fa-bb9c-3564de18b60b","published":true,"publishedAt":"2026-04-01T23:31:05.170Z","createdAt":"2026-05-11T23:31:05.265Z","updatedAt":"2026-05-11T23:31:05.265Z","image":{"id":"789e7ea9-d183-48fa-bb9c-3564de18b60b","createdAt":"2026-05-11T23:31:05.264Z","updatedAt":"2026-05-11T23:31:05.264Z","filename":"news-36.webp","originalName":"news-36.webp","mimeType":"image/webp","size":0,"path":"/seed/news-36.webp","url":"https://picsum.photos/seed/news-36/1200/800","uploadedById":null}},{"id":"fdd7ccb9-72db-49c6-9208-9652927dc848","title":"Завершение земляных работ в г. Керчь (№13)","slug":"zavershenie-zemlyanyh-rabot-v-g-kerch-13-13","excerpt":"Очередное достижение нашей команды — ещё один объект сдан в срок. Подробности — в нашем материале.","content":"## Завершение земляных работ\n\nОчередное достижение нашей команды — ещё один объект сдан в срок. Объект расположен в городе Керчь и реализован с применением современных строительных технологий.\n\nНад проектом работала команда из более чем 30 специалистов. Сроки реализации были соблюдены, а качество выполненных работ подтверждено независимой экспертизой.\n\n### Ключевые показатели\n\n- Общая площадь: 14051 м²\n- Срок работ: 7 мес.\n- Количество подрядчиков: 5\n\nМы благодарим всех партнёров и заказчиков за доверие. Впереди — новые амбициозные задачи.","imageId":"ed36864a-2e30-4672-a82a-cbd848b90250","published":true,"publishedAt":"2026-04-01T23:31:05.170Z","createdAt":"2026-05-11T23:31:05.211Z","updatedAt":"2026-05-11T23:31:05.211Z","image":{"id":"ed36864a-2e30-4672-a82a-cbd848b90250","createdAt":"2026-05-11T23:31:05.210Z","updatedAt":"2026-05-11T23:31:05.210Z","filename":"news-13.webp","originalName":"news-13.webp","mimeType":"image/webp","size":0,"path":"/seed/news-13.webp","url":"https://picsum.photos/seed/news-13/1200/800","uploadedById":null}},{"id":"5d52eee2-f9bd-4559-b8d7-8ae8698eb8ff","title":"Внедрение зелёных стандартов в г. Евпатория (№37)","slug":"vnedrenie-zelenyh-standartov-v-g-evpatoriya-37-37","excerpt":"Компания «Ларк Строй» сообщает о завершении важного этапа работ. Подробности — в нашем материале.","content":"## Внедрение зелёных стандартов\n\nКомпания «Ларк Строй» сообщает о завершении важного этапа работ. Объект расположен в городе Евпатория и реализован с применением современных строительных технологий.\n\nНад проектом работала команда из более чем 30 специалистов. Сроки реализации были соблюдены, а качество выполненных работ подтверждено независимой экспертизой.\n\n### Ключевые показатели\n\n- Общая площадь: 10302 м²\n- Срок работ: 10 мес.\n- Количество подрядчиков: 3\n\nМы благодарим всех партнёров и заказчиков за доверие. Впереди — новые амбициозные задачи.","imageId":"cc43eef2-dd53-45a2-8831-2b631bea21ee","published":true,"publishedAt":"2026-03-02T23:31:05.170Z","createdAt":"2026-05-11T23:31:05.268Z","updatedAt":"2026-05-11T23:31:05.268Z","image":{"id":"cc43eef2-dd53-45a2-8831-2b631bea21ee","createdAt":"2026-05-11T23:31:05.267Z","updatedAt":"2026-05-11T23:31:05.267Z","filename":"news-37.webp","originalName":"news-37.webp","mimeType":"image/webp","size":0,"path":"/seed/news-37.webp","url":"https://picsum.photos/seed/news-37/1200/800","uploadedById":null}},{"id":"986e3ef0-e30c-40bc-811b-261debc471d2","title":"Завершение монтажа кровли в г. Бахчисарай (№27)","slug":"zavershenie-montazha-krovli-v-g-bahchisarai-27-27","excerpt":"Реализован масштабный проект в рамках стратегического направления. Подробности — в нашем материале.","content":"## Завершение монтажа кровли\n\nРеализован масштабный проект в рамках стратегического направления. Объект расположен в городе Бахчисарай и реализован с применением современных строительных технологий.\n\nНад проектом работала команда из более чем 30 специалистов. Сроки реализации были соблюдены, а качество выполненных работ подтверждено независимой экспертизой.\n\n### Ключевые показатели\n\n- Общая площадь: 9974 м²\n- Срок работ: 15 мес.\n- Количество подрядчиков: 12\n\nМы благодарим всех партнёров и заказчиков за доверие. Впереди — новые амбициозные задачи.","imageId":"fe8c0dc1-4e04-473f-aa84-70bc78f767c0","published":true,"publishedAt":"2026-03-01T23:31:05.170Z","createdAt":"2026-05-11T23:31:05.244Z","updatedAt":"2026-05-11T23:31:05.244Z","image":{"id":"fe8c0dc1-4e04-473f-aa84-70bc78f767c0","createdAt":"2026-05-11T23:31:05.243Z","updatedAt":"2026-05-11T23:31:05.243Z","filename":"news-27.webp","originalName":"news-27.webp","mimeType":"image/webp","size":0,"path":"/seed/news-27.webp","url":"https://picsum.photos/seed/news-27/1200/800","uploadedById":null}},{"id":"f4bdaad0-7168-4c50-8c45-11b54c299604","title":"Старт строительства производственного цеха в г. Ялта (№39)","slug":"start-stroitelstva-proizvodstvennogo-ceha-v-g-yalta-39-39","excerpt":"Очередное достижение нашей команды — ещё один объект сдан в срок. Подробности — в нашем материале.","content":"## Старт строительства производственного цеха\n\nОчередное достижение нашей команды — ещё один объект сдан в срок. Объект расположен в городе Ялта и реализован с применением современных строительных технологий.\n\nНад проектом работала команда из более чем 30 специалистов. Сроки реализации были соблюдены, а качество выполненных работ подтверждено независимой экспертизой.\n\n### Ключевые показатели\n\n- Общая площадь: 3627 м²\n- Срок работ: 13 мес.\n- Количество подрядчиков: 12\n\nМы благодарим всех партнёров и заказчиков за доверие. Впереди — новые амбициозные задачи.","imageId":"ac96caa3-6c51-47bb-96a9-1390ca73525a","published":true,"publishedAt":"2026-02-20T23:31:05.170Z","createdAt":"2026-05-11T23:31:05.272Z","updatedAt":"2026-05-11T23:31:05.272Z","image":{"id":"ac96caa3-6c51-47bb-96a9-1390ca73525a","createdAt":"2026-05-11T23:31:05.271Z","updatedAt":"2026-05-11T23:31:05.271Z","filename":"news-39.webp","originalName":"news-39.webp","mimeType":"image/webp","size":0,"path":"/seed/news-39.webp","url":"https://picsum.photos/seed/news-39/1200/800","uploadedById":null}},{"id":"8ed51ba6-1917-41bb-90ba-d978b7dc6eea","title":"Внедрение зелёных стандартов в г. Феодосия (№31)","slug":"vnedrenie-zelenyh-standartov-v-g-feodosiya-31-31","excerpt":"Подведены итоги очередного квартала: показатели превзошли план. Подробности — в нашем материале.","content":"## Внедрение зелёных стандартов\n\nПодведены итоги очередного квартала: показатели превзошли план. Объект расположен в городе Феодосия и реализован с применением современных строительных технологий.\n\nНад проектом работала команда из более чем 30 специалистов. Сроки реализации были соблюдены, а качество выполненных работ подтверждено независимой экспертизой.\n\n### Ключевые показатели\n\n- Общая площадь: 7627 м²\n- Срок работ: 20 мес.\n- Количество подрядчиков: 8\n\nМы благодарим всех партнёров и заказчиков за доверие. Впереди — новые амбициозные задачи.","imageId":"d501d8c1-ab7a-4d66-b183-9ac3ed78bdfe","published":true,"publishedAt":"2026-02-18T23:31:05.170Z","createdAt":"2026-05-11T23:31:05.252Z","updatedAt":"2026-05-11T23:31:05.252Z","image":{"id":"d501d8c1-ab7a-4d66-b183-9ac3ed78bdfe","createdAt":"2026-05-11T23:31:05.251Z","updatedAt":"2026-05-11T23:31:05.251Z","filename":"news-31.webp","originalName":"news-31.webp","mimeType":"image/webp","size":0,"path":"/seed/news-31.webp","url":"https://picsum.photos/seed/news-31/1200/800","uploadedById":null}},{"id":"78f60999-af37-4d8f-86e8-1d084e6ecffc","title":"Сдача жилого квартала в эксплуатацию в г. Севастополь (№50)","slug":"sdacha-zhilogo-kvartala-v-ekspluataciyu-v-g-sevastopol-50-50","excerpt":"Подведены итоги очередного квартала: показатели превзошли план. Подробности — в нашем материале.","content":"## Сдача жилого квартала в эксплуатацию\n\nПодведены итоги очередного квартала: показатели превзошли план. Объект расположен в городе Севастополь и реализован с применением современных строительных технологий.\n\nНад проектом работала команда из более чем 30 специалистов. Сроки реализации были соблюдены, а качество выполненных работ подтверждено независимой экспертизой.\n\n### Ключевые показатели\n\n- Общая площадь: 9345 м²\n- Срок работ: 21 мес.\n- Количество подрядчиков: 6\n\nМы благодарим всех партнёров и заказчиков за доверие. Впереди — новые амбициозные задачи.","imageId":"a3fc56cd-962d-4ca0-87c4-5f6ba0c83028","published":true,"publishedAt":"2026-02-17T23:31:05.170Z","createdAt":"2026-05-11T23:31:05.298Z","updatedAt":"2026-05-11T23:31:05.298Z","image":{"id":"a3fc56cd-962d-4ca0-87c4-5f6ba0c83028","createdAt":"2026-05-11T23:31:05.297Z","updatedAt":"2026-05-11T23:31:05.297Z","filename":"news-50.webp","originalName":"news-50.webp","mimeType":"image/webp","size":0,"path":"/seed/news-50.webp","url":"https://picsum.photos/seed/news-50/1200/800","uploadedById":null}},{"id":"8e974e7a-fdbf-4a14-8a2a-aa7a02529b0e","title":"Внедрение BIM-технологий в г. Севастополь (№10)","slug":"vnedrenie-bim-tehnologii-v-g-sevastopol-10-10","excerpt":"Подведены итоги очередного квартала: показатели превзошли план. Подробности — в нашем материале.","content":"## Внедрение BIM-технологий\n\nПодведены итоги очередного квартала: показатели превзошли план. Объект расположен в городе Севастополь и реализован с применением современных строительных технологий.\n\nНад проектом работала команда из более чем 30 специалистов. Сроки реализации были соблюдены, а качество выполненных работ подтверждено независимой экспертизой.\n\n### Ключевые показатели\n\n- Общая площадь: 5552 м²\n- Срок работ: 4 мес.\n- Количество подрядчиков: 3\n\nМы благодарим всех партнёров и заказчиков за доверие. Впереди — новые амбициозные задачи.","imageId":"d108a2c6-4b9e-4fa1-89d7-0feb7048ee03","published":true,"publishedAt":"2026-02-14T23:31:05.170Z","createdAt":"2026-05-11T23:31:05.203Z","updatedAt":"2026-05-11T23:31:05.203Z","image":{"id":"d108a2c6-4b9e-4fa1-89d7-0feb7048ee03","createdAt":"2026-05-11T23:31:05.202Z","updatedAt":"2026-05-11T23:31:05.202Z","filename":"news-10.webp","originalName":"news-10.webp","mimeType":"image/webp","size":0,"path":"/seed/news-10.webp","url":"https://picsum.photos/seed/news-10/1200/800","uploadedById":null}},{"id":"73fbfc9c-0037-4ab6-93d1-02b742bce7a6","title":"Реконструкция исторического здания в г. Керчь (№29)","slug":"rekonstrukciya-istoricheskogo-zdaniya-v-g-kerch-29-29","excerpt":"Подведены итоги очередного квартала: показатели превзошли план. Подробности — в нашем материале.","content":"## Реконструкция исторического здания\n\nПодведены итоги очередного квартала: показатели превзошли план. Объект расположен в городе Керчь и реализован с применением современных строительных технологий.\n\nНад проектом работала команда из более чем 30 специалистов. Сроки реализации были соблюдены, а качество выполненных работ подтверждено независимой экспертизой.\n\n### Ключевые показатели\n\n- Общая площадь: 18886 м²\n- Срок работ: 17 мес.\n- Количество подрядчиков: 5\n\nМы благодарим всех партнёров и заказчиков за доверие. Впереди — новые амбициозные задачи.","imageId":"67a66ac4-3855-4c10-8678-49b0e5054be8","published":true,"publishedAt":"2026-02-12T23:31:05.170Z","createdAt":"2026-05-11T23:31:05.248Z","updatedAt":"2026-05-11T23:31:05.248Z","image":{"id":"67a66ac4-3855-4c10-8678-49b0e5054be8","createdAt":"2026-05-11T23:31:05.247Z","updatedAt":"2026-05-11T23:31:05.247Z","filename":"news-29.webp","originalName":"news-29.webp","mimeType":"image/webp","size":0,"path":"/seed/news-29.webp","url":"https://picsum.photos/seed/news-29/1200/800","uploadedById":null}},{"id":"3275b432-3d2f-4c9b-ba1a-48c966e71f50","title":"Реконструкция исторического здания в г. Бахчисарай (№7)","slug":"rekonstrukciya-istoricheskogo-zdaniya-v-g-bahchisarai-7-7","excerpt":"Реализован масштабный проект в рамках стратегического направления. Подробности — в нашем материале.","content":"## Реконструкция исторического здания\n\nРеализован масштабный проект в рамках стратегического направления. Объект расположен в городе Бахчисарай и реализован с применением современных строительных технологий.\n\nНад проектом работала команда из более чем 30 специалистов. Сроки реализации были соблюдены, а качество выполненных работ подтверждено независимой экспертизой.\n\n### Ключевые показатели\n\n- Общая площадь: 16127 м²\n- Срок работ: 16 мес.\n- Количество подрядчиков: 8\n\nМы благодарим всех партнёров и заказчиков за доверие. Впереди — новые амбициозные задачи.","imageId":"7aefad07-442f-4cdf-ac3c-3b0a708ff2ea","published":true,"publishedAt":"2026-02-12T23:31:05.170Z","createdAt":"2026-05-11T23:31:05.195Z","updatedAt":"2026-05-11T23:31:05.195Z","image":{"id":"7aefad07-442f-4cdf-ac3c-3b0a708ff2ea","createdAt":"2026-05-11T23:31:05.194Z","updatedAt":"2026-05-11T23:31:05.194Z","filename":"news-7.webp","originalName":"news-7.webp","mimeType":"image/webp","size":0,"path":"/seed/news-7.webp","url":"https://picsum.photos/seed/news-7/1200/800","uploadedById":null}}],"pagination":{"page":1,"limit":12,"total":50,"totalPages":5}}