{"items":[{"id":"10fe5afc-e363-455c-b577-0a001b6a6396","title":"Поставка строительных материалов в г. Севастополь (№49)","slug":"postavka-stroitelnyh-materialov-v-g-sevastopol-49-49","excerpt":"Реализован масштабный проект в рамках стратегического направления. Подробности — в нашем материале.","content":"## Поставка строительных материалов\n\nРеализован масштабный проект в рамках стратегического направления. Объект расположен в городе Севастополь и реализован с применением современных строительных технологий.\n\nНад проектом работала команда из более чем 30 специалистов. Сроки реализации были соблюдены, а качество выполненных работ подтверждено независимой экспертизой.\n\n### Ключевые показатели\n\n- Общая площадь: 7734 м²\n- Срок работ: 19 мес.\n- Количество подрядчиков: 3\n\nМы благодарим всех партнёров и заказчиков за доверие. Впереди — новые амбициозные задачи.","imageId":"fcbc781c-7f52-4c07-918f-3a3db70a08fb","published":true,"publishedAt":"2025-08-13T23:31:05.170Z","createdAt":"2026-05-11T23:31:05.295Z","updatedAt":"2026-05-11T23:31:05.295Z","image":{"id":"fcbc781c-7f52-4c07-918f-3a3db70a08fb","createdAt":"2026-05-11T23:31:05.294Z","updatedAt":"2026-05-11T23:31:05.294Z","filename":"news-49.webp","originalName":"news-49.webp","mimeType":"image/webp","size":0,"path":"/seed/news-49.webp","url":"https://picsum.photos/seed/news-49/1200/800","uploadedById":null}},{"id":"831233cd-82be-4c99-a5a6-06c414f00963","title":"Сдача школы под ключ в г. Симферополь (№3)","slug":"sdacha-shkoly-pod-klyuch-v-g-simferopol-3-3","excerpt":"Очередное достижение нашей команды — ещё один объект сдан в срок. Подробности — в нашем материале.","content":"## Сдача школы под ключ\n\nОчередное достижение нашей команды — ещё один объект сдан в срок. Объект расположен в городе Симферополь и реализован с применением современных строительных технологий.\n\nНад проектом работала команда из более чем 30 специалистов. Сроки реализации были соблюдены, а качество выполненных работ подтверждено независимой экспертизой.\n\n### Ключевые показатели\n\n- Общая площадь: 8262 м²\n- Срок работ: 19 мес.\n- Количество подрядчиков: 6\n\nМы благодарим всех партнёров и заказчиков за доверие. Впереди — новые амбициозные задачи.","imageId":"01f1bc48-3a17-42bb-b8f5-2a2cf6447b3b","published":true,"publishedAt":"2025-08-12T23:31:05.170Z","createdAt":"2026-05-11T23:31:05.178Z","updatedAt":"2026-05-11T23:31:05.178Z","image":{"id":"01f1bc48-3a17-42bb-b8f5-2a2cf6447b3b","createdAt":"2026-05-11T23:31:05.177Z","updatedAt":"2026-05-11T23:31:05.177Z","filename":"news-3.webp","originalName":"news-3.webp","mimeType":"image/webp","size":0,"path":"/seed/news-3.webp","url":"https://picsum.photos/seed/news-3/1200/800","uploadedById":null}},{"id":"1dddd055-c033-440d-b50b-2328cb77137f","title":"Сдача школы под ключ в г. Севастополь (№43)","slug":"sdacha-shkoly-pod-klyuch-v-g-sevastopol-43-43","excerpt":"Компания «Ларк Строй» сообщает о завершении важного этапа работ. Подробности — в нашем материале.","content":"## Сдача школы под ключ\n\nКомпания «Ларк Строй» сообщает о завершении важного этапа работ. Объект расположен в городе Севастополь и реализован с применением современных строительных технологий.\n\nНад проектом работала команда из более чем 30 специалистов. Сроки реализации были соблюдены, а качество выполненных работ подтверждено независимой экспертизой.\n\n### Ключевые показатели\n\n- Общая площадь: 10257 м²\n- Срок работ: 18 мес.\n- Количество подрядчиков: 3\n\nМы благодарим всех партнёров и заказчиков за доверие. Впереди — новые амбициозные задачи.","imageId":"c1e2ef87-f5af-4091-aef7-00d7a4a68da6","published":true,"publishedAt":"2025-08-01T23:31:05.170Z","createdAt":"2026-05-11T23:31:05.281Z","updatedAt":"2026-05-11T23:31:05.281Z","image":{"id":"c1e2ef87-f5af-4091-aef7-00d7a4a68da6","createdAt":"2026-05-11T23:31:05.280Z","updatedAt":"2026-05-11T23:31:05.280Z","filename":"news-43.webp","originalName":"news-43.webp","mimeType":"image/webp","size":0,"path":"/seed/news-43.webp","url":"https://picsum.photos/seed/news-43/1200/800","uploadedById":null}},{"id":"8ba30e8b-f42c-4c68-80d8-97b56f964b3d","title":"Заключение контракта с поставщиком в г. Ялта (№32)","slug":"zaklyuchenie-kontrakta-s-postavschikom-v-g-yalta-32-32","excerpt":"Компания «Ларк Строй» сообщает о завершении важного этапа работ. Подробности — в нашем материале.","content":"## Заключение контракта с поставщиком\n\nКомпания «Ларк Строй» сообщает о завершении важного этапа работ. Объект расположен в городе Ялта и реализован с применением современных строительных технологий.\n\nНад проектом работала команда из более чем 30 специалистов. Сроки реализации были соблюдены, а качество выполненных работ подтверждено независимой экспертизой.\n\n### Ключевые показатели\n\n- Общая площадь: 8517 м²\n- Срок работ: 4 мес.\n- Количество подрядчиков: 11\n\nМы благодарим всех партнёров и заказчиков за доверие. Впереди — новые амбициозные задачи.","imageId":"de0a33ca-9149-4a8a-aded-0a20984b1355","published":true,"publishedAt":"2025-07-29T23:31:05.170Z","createdAt":"2026-05-11T23:31:05.254Z","updatedAt":"2026-05-11T23:31:05.254Z","image":{"id":"de0a33ca-9149-4a8a-aded-0a20984b1355","createdAt":"2026-05-11T23:31:05.253Z","updatedAt":"2026-05-11T23:31:05.253Z","filename":"news-32.webp","originalName":"news-32.webp","mimeType":"image/webp","size":0,"path":"/seed/news-32.webp","url":"https://picsum.photos/seed/news-32/1200/800","uploadedById":null}},{"id":"d7fb2d31-d983-406d-a1c1-42a41663f097","title":"Сдача школы под ключ в г. Керчь (№4)","slug":"sdacha-shkoly-pod-klyuch-v-g-kerch-4-4","excerpt":"Очередное достижение нашей команды — ещё один объект сдан в срок. Подробности — в нашем материале.","content":"## Сдача школы под ключ\n\nОчередное достижение нашей команды — ещё один объект сдан в срок. Объект расположен в городе Керчь и реализован с применением современных строительных технологий.\n\nНад проектом работала команда из более чем 30 специалистов. Сроки реализации были соблюдены, а качество выполненных работ подтверждено независимой экспертизой.\n\n### Ключевые показатели\n\n- Общая площадь: 18336 м²\n- Срок работ: 13 мес.\n- Количество подрядчиков: 7\n\nМы благодарим всех партнёров и заказчиков за доверие. Впереди — новые амбициозные задачи.","imageId":"fb0df628-9c57-4c69-ad09-a72789a85675","published":true,"publishedAt":"2025-07-29T23:31:05.170Z","createdAt":"2026-05-11T23:31:05.180Z","updatedAt":"2026-05-11T23:31:05.180Z","image":{"id":"fb0df628-9c57-4c69-ad09-a72789a85675","createdAt":"2026-05-11T23:31:05.179Z","updatedAt":"2026-05-11T23:31:05.179Z","filename":"news-4.webp","originalName":"news-4.webp","mimeType":"image/webp","size":0,"path":"/seed/news-4.webp","url":"https://picsum.photos/seed/news-4/1200/800","uploadedById":null}},{"id":"b212d7a5-011c-4a50-98fb-c5692c5a3a7f","title":"Сдача школы под ключ в г. Ялта (№11)","slug":"sdacha-shkoly-pod-klyuch-v-g-yalta-11-11","excerpt":"Подведены итоги очередного квартала: показатели превзошли план. Подробности — в нашем материале.","content":"## Сдача школы под ключ\n\nПодведены итоги очередного квартала: показатели превзошли план. Объект расположен в городе Ялта и реализован с применением современных строительных технологий.\n\nНад проектом работала команда из более чем 30 специалистов. Сроки реализации были соблюдены, а качество выполненных работ подтверждено независимой экспертизой.\n\n### Ключевые показатели\n\n- Общая площадь: 16534 м²\n- Срок работ: 14 мес.\n- Количество подрядчиков: 9\n\nМы благодарим всех партнёров и заказчиков за доверие. Впереди — новые амбициозные задачи.","imageId":"c068de10-f98e-4e57-9f44-009ebce59ddc","published":true,"publishedAt":"2025-07-27T23:31:05.170Z","createdAt":"2026-05-11T23:31:05.206Z","updatedAt":"2026-05-11T23:31:05.206Z","image":{"id":"c068de10-f98e-4e57-9f44-009ebce59ddc","createdAt":"2026-05-11T23:31:05.205Z","updatedAt":"2026-05-11T23:31:05.205Z","filename":"news-11.webp","originalName":"news-11.webp","mimeType":"image/webp","size":0,"path":"/seed/news-11.webp","url":"https://picsum.photos/seed/news-11/1200/800","uploadedById":null}},{"id":"ba612a36-0b48-4654-9ec1-3baf1592e174","title":"Введение в строй инженерных сетей в г. Ялта (№44)","slug":"vvedenie-v-stroi-inzhenernyh-setei-v-g-yalta-44-44","excerpt":"Очередное достижение нашей команды — ещё один объект сдан в срок. Подробности — в нашем материале.","content":"## Введение в строй инженерных сетей\n\nОчередное достижение нашей команды — ещё один объект сдан в срок. Объект расположен в городе Ялта и реализован с применением современных строительных технологий.\n\nНад проектом работала команда из более чем 30 специалистов. Сроки реализации были соблюдены, а качество выполненных работ подтверждено независимой экспертизой.\n\n### Ключевые показатели\n\n- Общая площадь: 18519 м²\n- Срок работ: 6 мес.\n- Количество подрядчиков: 9\n\nМы благодарим всех партнёров и заказчиков за доверие. Впереди — новые амбициозные задачи.","imageId":"462b1d61-85f6-47ae-9f7c-8b6352e52af7","published":true,"publishedAt":"2025-06-30T23:31:05.170Z","createdAt":"2026-05-11T23:31:05.284Z","updatedAt":"2026-05-11T23:31:05.284Z","image":{"id":"462b1d61-85f6-47ae-9f7c-8b6352e52af7","createdAt":"2026-05-11T23:31:05.283Z","updatedAt":"2026-05-11T23:31:05.283Z","filename":"news-44.webp","originalName":"news-44.webp","mimeType":"image/webp","size":0,"path":"/seed/news-44.webp","url":"https://picsum.photos/seed/news-44/1200/800","uploadedById":null}},{"id":"e03e1d21-47c1-4d75-8997-5e8c04dff426","title":"Поставка строительных материалов в г. Евпатория (№46)","slug":"postavka-stroitelnyh-materialov-v-g-evpatoriya-46-46","excerpt":"Подведены итоги очередного квартала: показатели превзошли план. Подробности — в нашем материале.","content":"## Поставка строительных материалов\n\nПодведены итоги очередного квартала: показатели превзошли план. Объект расположен в городе Евпатория и реализован с применением современных строительных технологий.\n\nНад проектом работала команда из более чем 30 специалистов. Сроки реализации были соблюдены, а качество выполненных работ подтверждено независимой экспертизой.\n\n### Ключевые показатели\n\n- Общая площадь: 11310 м²\n- Срок работ: 13 мес.\n- Количество подрядчиков: 4\n\nМы благодарим всех партнёров и заказчиков за доверие. Впереди — новые амбициозные задачи.","imageId":"1075aece-3b83-422c-a1b5-875b752bfa1f","published":true,"publishedAt":"2025-06-29T23:31:05.170Z","createdAt":"2026-05-11T23:31:05.288Z","updatedAt":"2026-05-11T23:31:05.288Z","image":{"id":"1075aece-3b83-422c-a1b5-875b752bfa1f","createdAt":"2026-05-11T23:31:05.287Z","updatedAt":"2026-05-11T23:31:05.287Z","filename":"news-46.webp","originalName":"news-46.webp","mimeType":"image/webp","size":0,"path":"/seed/news-46.webp","url":"https://picsum.photos/seed/news-46/1200/800","uploadedById":null}},{"id":"e5cc70c7-674e-407a-97be-19fc367ac929","title":"Старт строительства производственного цеха в г. Феодосия (№41)","slug":"start-stroitelstva-proizvodstvennogo-ceha-v-g-feodosiya-41-41","excerpt":"Сегодня мы рады поделиться значимым событием в жизни компании. Подробности — в нашем материале.","content":"## Старт строительства производственного цеха\n\nСегодня мы рады поделиться значимым событием в жизни компании. Объект расположен в городе Феодосия и реализован с применением современных строительных технологий.\n\nНад проектом работала команда из более чем 30 специалистов. Сроки реализации были соблюдены, а качество выполненных работ подтверждено независимой экспертизой.\n\n### Ключевые показатели\n\n- Общая площадь: 15598 м²\n- Срок работ: 15 мес.\n- Количество подрядчиков: 9\n\nМы благодарим всех партнёров и заказчиков за доверие. Впереди — новые амбициозные задачи.","imageId":"3680c798-d21e-4370-b193-03ab83926474","published":true,"publishedAt":"2025-06-11T23:31:05.170Z","createdAt":"2026-05-11T23:31:05.277Z","updatedAt":"2026-05-11T23:31:05.277Z","image":{"id":"3680c798-d21e-4370-b193-03ab83926474","createdAt":"2026-05-11T23:31:05.276Z","updatedAt":"2026-05-11T23:31:05.276Z","filename":"news-41.webp","originalName":"news-41.webp","mimeType":"image/webp","size":0,"path":"/seed/news-41.webp","url":"https://picsum.photos/seed/news-41/1200/800","uploadedById":null}},{"id":"e8b5e37d-7415-4714-b119-6d0b8053799e","title":"Заключение контракта с поставщиком в г. Евпатория (№1)","slug":"zaklyuchenie-kontrakta-s-postavschikom-v-g-evpatoriya-1-1","excerpt":"Подведены итоги очередного квартала: показатели превзошли план. Подробности — в нашем материале.","content":"## Заключение контракта с поставщиком\n\nПодведены итоги очередного квартала: показатели превзошли план. Объект расположен в городе Евпатория и реализован с применением современных строительных технологий.\n\nНад проектом работала команда из более чем 30 специалистов. Сроки реализации были соблюдены, а качество выполненных работ подтверждено независимой экспертизой.\n\n### Ключевые показатели\n\n- Общая площадь: 14756 м²\n- Срок работ: 19 мес.\n- Количество подрядчиков: 6\n\nМы благодарим всех партнёров и заказчиков за доверие. Впереди — новые амбициозные задачи.","imageId":"61013bd5-b54d-4d15-9cf9-49081541fbdb","published":true,"publishedAt":"2025-06-06T23:31:05.170Z","createdAt":"2026-05-11T23:31:05.172Z","updatedAt":"2026-05-11T23:31:05.172Z","image":{"id":"61013bd5-b54d-4d15-9cf9-49081541fbdb","createdAt":"2026-05-11T23:31:05.171Z","updatedAt":"2026-05-11T23:31:05.171Z","filename":"news-1.webp","originalName":"news-1.webp","mimeType":"image/webp","size":0,"path":"/seed/news-1.webp","url":"https://picsum.photos/seed/news-1/1200/800","uploadedById":null}},{"id":"a99752f2-f1a8-4262-a971-bffc9226b9de","title":"Открытие нового детского сада в г. Евпатория (№6)","slug":"otkrytie-novogo-detskogo-sada-v-g-evpatoriya-6-6","excerpt":"Сегодня мы рады поделиться значимым событием в жизни компании. Подробности — в нашем материале.","content":"## Открытие нового детского сада\n\nСегодня мы рады поделиться значимым событием в жизни компании. Объект расположен в городе Евпатория и реализован с применением современных строительных технологий.\n\nНад проектом работала команда из более чем 30 специалистов. Сроки реализации были соблюдены, а качество выполненных работ подтверждено независимой экспертизой.\n\n### Ключевые показатели\n\n- Общая площадь: 18181 м²\n- Срок работ: 17 мес.\n- Количество подрядчиков: 8\n\nМы благодарим всех партнёров и заказчиков за доверие. Впереди — новые амбициозные задачи.","imageId":"d4afa000-6444-4152-942c-23e0e1899d75","published":true,"publishedAt":"2025-06-03T23:31:05.170Z","createdAt":"2026-05-11T23:31:05.193Z","updatedAt":"2026-05-11T23:31:05.193Z","image":{"id":"d4afa000-6444-4152-942c-23e0e1899d75","createdAt":"2026-05-11T23:31:05.189Z","updatedAt":"2026-05-11T23:31:05.189Z","filename":"news-6.webp","originalName":"news-6.webp","mimeType":"image/webp","size":0,"path":"/seed/news-6.webp","url":"https://picsum.photos/seed/news-6/1200/800","uploadedById":null}},{"id":"2388e730-736b-4ab9-b2f2-133ad89d8852","title":"Сертификация по ISO 9001 в г. Ялта (№16)","slug":"sertifikaciya-po-iso-9001-v-g-yalta-16-16","excerpt":"Очередное достижение нашей команды — ещё один объект сдан в срок. Подробности — в нашем материале.","content":"## Сертификация по ISO 9001\n\nОчередное достижение нашей команды — ещё один объект сдан в срок. Объект расположен в городе Ялта и реализован с применением современных строительных технологий.\n\nНад проектом работала команда из более чем 30 специалистов. Сроки реализации были соблюдены, а качество выполненных работ подтверждено независимой экспертизой.\n\n### Ключевые показатели\n\n- Общая площадь: 17808 м²\n- Срок работ: 13 мес.\n- Количество подрядчиков: 4\n\nМы благодарим всех партнёров и заказчиков за доверие. Впереди — новые амбициозные задачи.","imageId":"4b717c8b-9285-40b7-92ee-29d0d0b807d0","published":true,"publishedAt":"2025-05-31T23:31:05.170Z","createdAt":"2026-05-11T23:31:05.218Z","updatedAt":"2026-05-11T23:31:05.218Z","image":{"id":"4b717c8b-9285-40b7-92ee-29d0d0b807d0","createdAt":"2026-05-11T23:31:05.216Z","updatedAt":"2026-05-11T23:31:05.216Z","filename":"news-16.webp","originalName":"news-16.webp","mimeType":"image/webp","size":0,"path":"/seed/news-16.webp","url":"https://picsum.photos/seed/news-16/1200/800","uploadedById":null}}],"pagination":{"page":4,"limit":12,"total":50,"totalPages":5}}