{"items":[{"id":"7e2b38a3-44b9-4573-89a7-d567fca034e3","title":"Запуск автоматизированной системы управления в г. Керчь (№47)","slug":"zapusk-avtomatizirovannoi-sistemy-upravleniya-v-g-kerch-47-47","excerpt":"Очередное достижение нашей команды — ещё один объект сдан в срок. Подробности — в нашем материале.","content":"## Запуск автоматизированной системы управления\n\nОчередное достижение нашей команды — ещё один объект сдан в срок. Объект расположен в городе Керчь и реализован с применением современных строительных технологий.\n\nНад проектом работала команда из более чем 30 специалистов. Сроки реализации были соблюдены, а качество выполненных работ подтверждено независимой экспертизой.\n\n### Ключевые показатели\n\n- Общая площадь: 19763 м²\n- Срок работ: 17 мес.\n- Количество подрядчиков: 10\n\nМы благодарим всех партнёров и заказчиков за доверие. Впереди — новые амбициозные задачи.","imageId":"0c83738a-08d4-451a-aaa2-919c335cae90","published":true,"publishedAt":"2025-10-26T23:31:05.170Z","createdAt":"2026-05-11T23:31:05.291Z","updatedAt":"2026-05-11T23:31:05.291Z","image":{"id":"0c83738a-08d4-451a-aaa2-919c335cae90","createdAt":"2026-05-11T23:31:05.290Z","updatedAt":"2026-05-11T23:31:05.290Z","filename":"news-47.webp","originalName":"news-47.webp","mimeType":"image/webp","size":0,"path":"/seed/news-47.webp","url":"https://picsum.photos/seed/news-47/1200/800","uploadedById":null}},{"id":"3efb5568-d17a-4ec8-b091-00bf1f808169","title":"Обновление парка спецтехники в г. Симферополь (№26)","slug":"obnovlenie-parka-spectehniki-v-g-simferopol-26-26","excerpt":"Компания «Ларк Строй» сообщает о завершении важного этапа работ. Подробности — в нашем материале.","content":"## Обновление парка спецтехники\n\nКомпания «Ларк Строй» сообщает о завершении важного этапа работ. Объект расположен в городе Симферополь и реализован с применением современных строительных технологий.\n\nНад проектом работала команда из более чем 30 специалистов. Сроки реализации были соблюдены, а качество выполненных работ подтверждено независимой экспертизой.\n\n### Ключевые показатели\n\n- Общая площадь: 2125 м²\n- Срок работ: 9 мес.\n- Количество подрядчиков: 11\n\nМы благодарим всех партнёров и заказчиков за доверие. Впереди — новые амбициозные задачи.","imageId":"658d62b8-a505-4115-ad9f-eb3738f6f2c3","published":true,"publishedAt":"2025-10-24T23:31:05.170Z","createdAt":"2026-05-11T23:31:05.242Z","updatedAt":"2026-05-11T23:31:05.242Z","image":{"id":"658d62b8-a505-4115-ad9f-eb3738f6f2c3","createdAt":"2026-05-11T23:31:05.241Z","updatedAt":"2026-05-11T23:31:05.241Z","filename":"news-26.webp","originalName":"news-26.webp","mimeType":"image/webp","size":0,"path":"/seed/news-26.webp","url":"https://picsum.photos/seed/news-26/1200/800","uploadedById":null}},{"id":"f2be9abc-1b3c-46b1-9bb9-db1174d46e85","title":"Внедрение зелёных стандартов в г. Ялта (№33)","slug":"vnedrenie-zelenyh-standartov-v-g-yalta-33-33","excerpt":"Реализован масштабный проект в рамках стратегического направления. Подробности — в нашем материале.","content":"## Внедрение зелёных стандартов\n\nРеализован масштабный проект в рамках стратегического направления. Объект расположен в городе Ялта и реализован с применением современных строительных технологий.\n\nНад проектом работала команда из более чем 30 специалистов. Сроки реализации были соблюдены, а качество выполненных работ подтверждено независимой экспертизой.\n\n### Ключевые показатели\n\n- Общая площадь: 12672 м²\n- Срок работ: 17 мес.\n- Количество подрядчиков: 6\n\nМы благодарим всех партнёров и заказчиков за доверие. Впереди — новые амбициозные задачи.","imageId":"c4955306-743f-4b35-bdd8-1aad5b8c3426","published":true,"publishedAt":"2025-10-20T23:31:05.170Z","createdAt":"2026-05-11T23:31:05.256Z","updatedAt":"2026-05-11T23:31:05.256Z","image":{"id":"c4955306-743f-4b35-bdd8-1aad5b8c3426","createdAt":"2026-05-11T23:31:05.255Z","updatedAt":"2026-05-11T23:31:05.255Z","filename":"news-33.webp","originalName":"news-33.webp","mimeType":"image/webp","size":0,"path":"/seed/news-33.webp","url":"https://picsum.photos/seed/news-33/1200/800","uploadedById":null}},{"id":"77769e1d-df8e-42ae-bfed-d809c2420481","title":"Внедрение зелёных стандартов в г. Севастополь (№15)","slug":"vnedrenie-zelenyh-standartov-v-g-sevastopol-15-15","excerpt":"Сегодня мы рады поделиться значимым событием в жизни компании. Подробности — в нашем материале.","content":"## Внедрение зелёных стандартов\n\nСегодня мы рады поделиться значимым событием в жизни компании. Объект расположен в городе Севастополь и реализован с применением современных строительных технологий.\n\nНад проектом работала команда из более чем 30 специалистов. Сроки реализации были соблюдены, а качество выполненных работ подтверждено независимой экспертизой.\n\n### Ключевые показатели\n\n- Общая площадь: 16118 м²\n- Срок работ: 7 мес.\n- Количество подрядчиков: 10\n\nМы благодарим всех партнёров и заказчиков за доверие. Впереди — новые амбициозные задачи.","imageId":"fb8ecbfc-b602-4487-b53b-a335e4f4e991","published":true,"publishedAt":"2025-10-17T23:31:05.170Z","createdAt":"2026-05-11T23:31:05.215Z","updatedAt":"2026-05-11T23:31:05.215Z","image":{"id":"fb8ecbfc-b602-4487-b53b-a335e4f4e991","createdAt":"2026-05-11T23:31:05.214Z","updatedAt":"2026-05-11T23:31:05.214Z","filename":"news-15.webp","originalName":"news-15.webp","mimeType":"image/webp","size":0,"path":"/seed/news-15.webp","url":"https://picsum.photos/seed/news-15/1200/800","uploadedById":null}},{"id":"e17e16b6-4fad-480e-a837-43d1573f10ea","title":"Сертификация по ISO 9001 в г. Севастополь (№19)","slug":"sertifikaciya-po-iso-9001-v-g-sevastopol-19-19","excerpt":"Подведены итоги очередного квартала: показатели превзошли план. Подробности — в нашем материале.","content":"## Сертификация по ISO 9001\n\nПодведены итоги очередного квартала: показатели превзошли план. Объект расположен в городе Севастополь и реализован с применением современных строительных технологий.\n\nНад проектом работала команда из более чем 30 специалистов. Сроки реализации были соблюдены, а качество выполненных работ подтверждено независимой экспертизой.\n\n### Ключевые показатели\n\n- Общая площадь: 15460 м²\n- Срок работ: 17 мес.\n- Количество подрядчиков: 10\n\nМы благодарим всех партнёров и заказчиков за доверие. Впереди — новые амбициозные задачи.","imageId":"562f1897-5b43-424e-b34a-e04cac4845d8","published":true,"publishedAt":"2025-10-08T23:31:05.170Z","createdAt":"2026-05-11T23:31:05.224Z","updatedAt":"2026-05-11T23:31:05.224Z","image":{"id":"562f1897-5b43-424e-b34a-e04cac4845d8","createdAt":"2026-05-11T23:31:05.223Z","updatedAt":"2026-05-11T23:31:05.223Z","filename":"news-19.webp","originalName":"news-19.webp","mimeType":"image/webp","size":0,"path":"/seed/news-19.webp","url":"https://picsum.photos/seed/news-19/1200/800","uploadedById":null}},{"id":"c944eab5-4b55-428a-9724-8da00602f765","title":"Завершение земляных работ в г. Феодосия (№18)","slug":"zavershenie-zemlyanyh-rabot-v-g-feodosiya-18-18","excerpt":"Очередное достижение нашей команды — ещё один объект сдан в срок. Подробности — в нашем материале.","content":"## Завершение земляных работ\n\nОчередное достижение нашей команды — ещё один объект сдан в срок. Объект расположен в городе Феодосия и реализован с применением современных строительных технологий.\n\nНад проектом работала команда из более чем 30 специалистов. Сроки реализации были соблюдены, а качество выполненных работ подтверждено независимой экспертизой.\n\n### Ключевые показатели\n\n- Общая площадь: 16586 м²\n- Срок работ: 9 мес.\n- Количество подрядчиков: 12\n\nМы благодарим всех партнёров и заказчиков за доверие. Впереди — новые амбициозные задачи.","imageId":"b1f12423-bf2f-4f4d-a9e2-4cfd8eb73bb2","published":true,"publishedAt":"2025-10-08T23:31:05.170Z","createdAt":"2026-05-11T23:31:05.222Z","updatedAt":"2026-05-11T23:31:05.222Z","image":{"id":"b1f12423-bf2f-4f4d-a9e2-4cfd8eb73bb2","createdAt":"2026-05-11T23:31:05.221Z","updatedAt":"2026-05-11T23:31:05.221Z","filename":"news-18.webp","originalName":"news-18.webp","mimeType":"image/webp","size":0,"path":"/seed/news-18.webp","url":"https://picsum.photos/seed/news-18/1200/800","uploadedById":null}},{"id":"2e192105-ffa3-4560-96b9-09fcaf6738b3","title":"Завершение благоустройства территории в г. Симферополь (№2)","slug":"zavershenie-blagoustroistva-territorii-v-g-simferopol-2-2","excerpt":"Очередное достижение нашей команды — ещё один объект сдан в срок. Подробности — в нашем материале.","content":"## Завершение благоустройства территории\n\nОчередное достижение нашей команды — ещё один объект сдан в срок. Объект расположен в городе Симферополь и реализован с применением современных строительных технологий.\n\nНад проектом работала команда из более чем 30 специалистов. Сроки реализации были соблюдены, а качество выполненных работ подтверждено независимой экспертизой.\n\n### Ключевые показатели\n\n- Общая площадь: 20970 м²\n- Срок работ: 11 мес.\n- Количество подрядчиков: 6\n\nМы благодарим всех партнёров и заказчиков за доверие. Впереди — новые амбициозные задачи.","imageId":"406e530e-1ba6-4d02-9c15-9a91dbd71167","published":true,"publishedAt":"2025-10-06T23:31:05.170Z","createdAt":"2026-05-11T23:31:05.176Z","updatedAt":"2026-05-11T23:31:05.176Z","image":{"id":"406e530e-1ba6-4d02-9c15-9a91dbd71167","createdAt":"2026-05-11T23:31:05.175Z","updatedAt":"2026-05-11T23:31:05.175Z","filename":"news-2.webp","originalName":"news-2.webp","mimeType":"image/webp","size":0,"path":"/seed/news-2.webp","url":"https://picsum.photos/seed/news-2/1200/800","uploadedById":null}},{"id":"235dccc6-014b-49f8-8fa4-58d38fc2c035","title":"Сертификация по ISO 9001 в г. Керчь (№45)","slug":"sertifikaciya-po-iso-9001-v-g-kerch-45-45","excerpt":"Реализован масштабный проект в рамках стратегического направления. Подробности — в нашем материале.","content":"## Сертификация по ISO 9001\n\nРеализован масштабный проект в рамках стратегического направления. Объект расположен в городе Керчь и реализован с применением современных строительных технологий.\n\nНад проектом работала команда из более чем 30 специалистов. Сроки реализации были соблюдены, а качество выполненных работ подтверждено независимой экспертизой.\n\n### Ключевые показатели\n\n- Общая площадь: 20949 м²\n- Срок работ: 10 мес.\n- Количество подрядчиков: 9\n\nМы благодарим всех партнёров и заказчиков за доверие. Впереди — новые амбициозные задачи.","imageId":"75820409-a898-49c9-8122-424f69fd56b8","published":true,"publishedAt":"2025-09-23T23:31:05.170Z","createdAt":"2026-05-11T23:31:05.286Z","updatedAt":"2026-05-11T23:31:05.286Z","image":{"id":"75820409-a898-49c9-8122-424f69fd56b8","createdAt":"2026-05-11T23:31:05.285Z","updatedAt":"2026-05-11T23:31:05.285Z","filename":"news-45.webp","originalName":"news-45.webp","mimeType":"image/webp","size":0,"path":"/seed/news-45.webp","url":"https://picsum.photos/seed/news-45/1200/800","uploadedById":null}},{"id":"7ef065c1-3ab1-491e-9115-4e515cbde6cf","title":"Премия за лучший проект года в г. Бахчисарай (№12)","slug":"premiya-za-luchshii-proekt-goda-v-g-bahchisarai-12-12","excerpt":"Реализован масштабный проект в рамках стратегического направления. Подробности — в нашем материале.","content":"## Премия за лучший проект года\n\nРеализован масштабный проект в рамках стратегического направления. Объект расположен в городе Бахчисарай и реализован с применением современных строительных технологий.\n\nНад проектом работала команда из более чем 30 специалистов. Сроки реализации были соблюдены, а качество выполненных работ подтверждено независимой экспертизой.\n\n### Ключевые показатели\n\n- Общая площадь: 16212 м²\n- Срок работ: 15 мес.\n- Количество подрядчиков: 6\n\nМы благодарим всех партнёров и заказчиков за доверие. Впереди — новые амбициозные задачи.","imageId":"a08114e3-aa25-4b62-8cfb-fbcf8c8203f3","published":true,"publishedAt":"2025-09-07T23:31:05.170Z","createdAt":"2026-05-11T23:31:05.209Z","updatedAt":"2026-05-11T23:31:05.209Z","image":{"id":"a08114e3-aa25-4b62-8cfb-fbcf8c8203f3","createdAt":"2026-05-11T23:31:05.208Z","updatedAt":"2026-05-11T23:31:05.208Z","filename":"news-12.webp","originalName":"news-12.webp","mimeType":"image/webp","size":0,"path":"/seed/news-12.webp","url":"https://picsum.photos/seed/news-12/1200/800","uploadedById":null}},{"id":"ed472977-f9a0-4457-a764-6c889c2c3e05","title":"Внедрение BIM-технологий в г. Керчь (№25)","slug":"vnedrenie-bim-tehnologii-v-g-kerch-25-25","excerpt":"Реализован масштабный проект в рамках стратегического направления. Подробности — в нашем материале.","content":"## Внедрение BIM-технологий\n\nРеализован масштабный проект в рамках стратегического направления. Объект расположен в городе Керчь и реализован с применением современных строительных технологий.\n\nНад проектом работала команда из более чем 30 специалистов. Сроки реализации были соблюдены, а качество выполненных работ подтверждено независимой экспертизой.\n\n### Ключевые показатели\n\n- Общая площадь: 10745 м²\n- Срок работ: 17 мес.\n- Количество подрядчиков: 5\n\nМы благодарим всех партнёров и заказчиков за доверие. Впереди — новые амбициозные задачи.","imageId":"9e06522b-aba3-4d04-8ad7-27e58b670a17","published":true,"publishedAt":"2025-08-31T23:31:05.170Z","createdAt":"2026-05-11T23:31:05.238Z","updatedAt":"2026-05-11T23:31:05.238Z","image":{"id":"9e06522b-aba3-4d04-8ad7-27e58b670a17","createdAt":"2026-05-11T23:31:05.237Z","updatedAt":"2026-05-11T23:31:05.237Z","filename":"news-25.webp","originalName":"news-25.webp","mimeType":"image/webp","size":0,"path":"/seed/news-25.webp","url":"https://picsum.photos/seed/news-25/1200/800","uploadedById":null}},{"id":"cc21c916-389a-4d45-a393-c6d0087885ef","title":"Реконструкция исторического здания в г. Севастополь (№5)","slug":"rekonstrukciya-istoricheskogo-zdaniya-v-g-sevastopol-5-5","excerpt":"Сегодня мы рады поделиться значимым событием в жизни компании. Подробности — в нашем материале.","content":"## Реконструкция исторического здания\n\nСегодня мы рады поделиться значимым событием в жизни компании. Объект расположен в городе Севастополь и реализован с применением современных строительных технологий.\n\nНад проектом работала команда из более чем 30 специалистов. Сроки реализации были соблюдены, а качество выполненных работ подтверждено независимой экспертизой.\n\n### Ключевые показатели\n\n- Общая площадь: 14843 м²\n- Срок работ: 13 мес.\n- Количество подрядчиков: 3\n\nМы благодарим всех партнёров и заказчиков за доверие. Впереди — новые амбициозные задачи.","imageId":"ca84d967-e5f9-47fe-a6c1-aabe4946daa2","published":true,"publishedAt":"2025-08-31T23:31:05.170Z","createdAt":"2026-05-11T23:31:05.186Z","updatedAt":"2026-05-11T23:31:05.186Z","image":{"id":"ca84d967-e5f9-47fe-a6c1-aabe4946daa2","createdAt":"2026-05-11T23:31:05.185Z","updatedAt":"2026-05-11T23:31:05.185Z","filename":"news-5.webp","originalName":"news-5.webp","mimeType":"image/webp","size":0,"path":"/seed/news-5.webp","url":"https://picsum.photos/seed/news-5/1200/800","uploadedById":null}},{"id":"3b1ff171-520b-4824-9c67-a43a9ad1898a","title":"Сертификация по ISO 9001 в г. Севастополь (№17)","slug":"sertifikaciya-po-iso-9001-v-g-sevastopol-17-17","excerpt":"Подведены итоги очередного квартала: показатели превзошли план. Подробности — в нашем материале.","content":"## Сертификация по ISO 9001\n\nПодведены итоги очередного квартала: показатели превзошли план. Объект расположен в городе Севастополь и реализован с применением современных строительных технологий.\n\nНад проектом работала команда из более чем 30 специалистов. Сроки реализации были соблюдены, а качество выполненных работ подтверждено независимой экспертизой.\n\n### Ключевые показатели\n\n- Общая площадь: 18438 м²\n- Срок работ: 18 мес.\n- Количество подрядчиков: 6\n\nМы благодарим всех партнёров и заказчиков за доверие. Впереди — новые амбициозные задачи.","imageId":"dec7664e-ce5d-463c-9f34-5564a81d7cbe","published":true,"publishedAt":"2025-08-14T23:31:05.170Z","createdAt":"2026-05-11T23:31:05.220Z","updatedAt":"2026-05-11T23:31:05.220Z","image":{"id":"dec7664e-ce5d-463c-9f34-5564a81d7cbe","createdAt":"2026-05-11T23:31:05.219Z","updatedAt":"2026-05-11T23:31:05.219Z","filename":"news-17.webp","originalName":"news-17.webp","mimeType":"image/webp","size":0,"path":"/seed/news-17.webp","url":"https://picsum.photos/seed/news-17/1200/800","uploadedById":null}}],"pagination":{"page":3,"limit":12,"total":50,"totalPages":5}}