{"items":[{"id":"a9cd1969-265e-41ab-98bb-a3a4cf36c57b","title":"Поставка строительных материалов в г. Керчь (№30)","slug":"postavka-stroitelnyh-materialov-v-g-kerch-30-30","excerpt":"Реализован масштабный проект в рамках стратегического направления. Подробности — в нашем материале.","content":"## Поставка строительных материалов\n\nРеализован масштабный проект в рамках стратегического направления. Объект расположен в городе Керчь и реализован с применением современных строительных технологий.\n\nНад проектом работала команда из более чем 30 специалистов. Сроки реализации были соблюдены, а качество выполненных работ подтверждено независимой экспертизой.\n\n### Ключевые показатели\n\n- Общая площадь: 15032 м²\n- Срок работ: 6 мес.\n- Количество подрядчиков: 12\n\nМы благодарим всех партнёров и заказчиков за доверие. Впереди — новые амбициозные задачи.","imageId":"6fa323d9-0e42-4514-be4f-baf162729ff7","published":true,"publishedAt":"2026-02-11T23:31:05.170Z","createdAt":"2026-05-11T23:31:05.250Z","updatedAt":"2026-05-11T23:31:05.250Z","image":{"id":"6fa323d9-0e42-4514-be4f-baf162729ff7","createdAt":"2026-05-11T23:31:05.249Z","updatedAt":"2026-05-11T23:31:05.249Z","filename":"news-30.webp","originalName":"news-30.webp","mimeType":"image/webp","size":0,"path":"/seed/news-30.webp","url":"/projects/news-30-1200x800.jpg","uploadedById":null}},{"id":"5b22ea66-b898-439c-9598-e81f322a1ca2","title":"Сертификация по ISO 9001 в г. Керчь (№20)","slug":"sertifikaciya-po-iso-9001-v-g-kerch-20-20","excerpt":"Реализован масштабный проект в рамках стратегического направления. Подробности — в нашем материале.","content":"## Сертификация по ISO 9001\n\nРеализован масштабный проект в рамках стратегического направления. Объект расположен в городе Керчь и реализован с применением современных строительных технологий.\n\nНад проектом работала команда из более чем 30 специалистов. Сроки реализации были соблюдены, а качество выполненных работ подтверждено независимой экспертизой.\n\n### Ключевые показатели\n\n- Общая площадь: 5319 м²\n- Срок работ: 6 мес.\n- Количество подрядчиков: 7\n\nМы благодарим всех партнёров и заказчиков за доверие. Впереди — новые амбициозные задачи.","imageId":"351d3be6-627f-433d-a09b-04e6c903ccec","published":true,"publishedAt":"2026-02-11T23:31:05.170Z","createdAt":"2026-05-11T23:31:05.228Z","updatedAt":"2026-05-11T23:31:05.228Z","image":{"id":"351d3be6-627f-433d-a09b-04e6c903ccec","createdAt":"2026-05-11T23:31:05.227Z","updatedAt":"2026-05-11T23:31:05.227Z","filename":"news-20.webp","originalName":"news-20.webp","mimeType":"image/webp","size":0,"path":"/seed/news-20.webp","url":"/projects/news-20-1200x800.jpg","uploadedById":null}},{"id":"cada0e3e-fd9a-4125-8e48-d85ace5dbe47","title":"Расширение производственной площадки в г. Симферополь (№40)","slug":"rasshirenie-proizvodstvennoi-ploschadki-v-g-simferopol-40-40","excerpt":"Компания «Ларк Строй» сообщает о завершении важного этапа работ. Подробности — в нашем материале.","content":"## Расширение производственной площадки\n\nКомпания «Ларк Строй» сообщает о завершении важного этапа работ. Объект расположен в городе Симферополь и реализован с применением современных строительных технологий.\n\nНад проектом работала команда из более чем 30 специалистов. Сроки реализации были соблюдены, а качество выполненных работ подтверждено независимой экспертизой.\n\n### Ключевые показатели\n\n- Общая площадь: 14584 м²\n- Срок работ: 6 мес.\n- Количество подрядчиков: 8\n\nМы благодарим всех партнёров и заказчиков за доверие. Впереди — новые амбициозные задачи.","imageId":"3549700b-ed27-4866-aceb-b0ddc14a5009","published":true,"publishedAt":"2026-01-25T23:31:05.170Z","createdAt":"2026-05-11T23:31:05.275Z","updatedAt":"2026-05-11T23:31:05.275Z","image":{"id":"3549700b-ed27-4866-aceb-b0ddc14a5009","createdAt":"2026-05-11T23:31:05.274Z","updatedAt":"2026-05-11T23:31:05.274Z","filename":"news-40.webp","originalName":"news-40.webp","mimeType":"image/webp","size":0,"path":"/seed/news-40.webp","url":"/projects/news-40-1200x800.jpg","uploadedById":null}},{"id":"c573332b-069f-4ca6-9c4a-e38af24fd48d","title":"Внедрение зелёных стандартов в г. Севастополь (№8)","slug":"vnedrenie-zelenyh-standartov-v-g-sevastopol-8-8","excerpt":"Подведены итоги очередного квартала: показатели превзошли план. Подробности — в нашем материале.","content":"## Внедрение зелёных стандартов\n\nПодведены итоги очередного квартала: показатели превзошли план. Объект расположен в городе Севастополь и реализован с применением современных строительных технологий.\n\nНад проектом работала команда из более чем 30 специалистов. Сроки реализации были соблюдены, а качество выполненных работ подтверждено независимой экспертизой.\n\n### Ключевые показатели\n\n- Общая площадь: 12479 м²\n- Срок работ: 9 мес.\n- Количество подрядчиков: 3\n\nМы благодарим всех партнёров и заказчиков за доверие. Впереди — новые амбициозные задачи.","imageId":"847fb484-6c14-4ae2-83a2-3dde51fb0219","published":true,"publishedAt":"2026-01-12T23:31:05.170Z","createdAt":"2026-05-11T23:31:05.198Z","updatedAt":"2026-05-11T23:31:05.198Z","image":{"id":"847fb484-6c14-4ae2-83a2-3dde51fb0219","createdAt":"2026-05-11T23:31:05.196Z","updatedAt":"2026-05-11T23:31:05.196Z","filename":"news-8.webp","originalName":"news-8.webp","mimeType":"image/webp","size":0,"path":"/seed/news-8.webp","url":"/projects/news-8-1200x800.jpg","uploadedById":null}},{"id":"159e8664-be02-4ad8-8316-1a859d5d3ef8","title":"Расширение производственной площадки в г. Севастополь (№9)","slug":"rasshirenie-proizvodstvennoi-ploschadki-v-g-sevastopol-9-9","excerpt":"Подведены итоги очередного квартала: показатели превзошли план. Подробности — в нашем материале.","content":"## Расширение производственной площадки\n\nПодведены итоги очередного квартала: показатели превзошли план. Объект расположен в городе Севастополь и реализован с применением современных строительных технологий.\n\nНад проектом работала команда из более чем 30 специалистов. Сроки реализации были соблюдены, а качество выполненных работ подтверждено независимой экспертизой.\n\n### Ключевые показатели\n\n- Общая площадь: 17897 м²\n- Срок работ: 5 мес.\n- Количество подрядчиков: 12\n\nМы благодарим всех партнёров и заказчиков за доверие. Впереди — новые амбициозные задачи.","imageId":"c11fa2d6-1e84-4bcf-812b-c924efe2b534","published":true,"publishedAt":"2025-12-14T23:31:05.170Z","createdAt":"2026-05-11T23:31:05.201Z","updatedAt":"2026-05-11T23:31:05.201Z","image":{"id":"c11fa2d6-1e84-4bcf-812b-c924efe2b534","createdAt":"2026-05-11T23:31:05.199Z","updatedAt":"2026-05-11T23:31:05.199Z","filename":"news-9.webp","originalName":"news-9.webp","mimeType":"image/webp","size":0,"path":"/seed/news-9.webp","url":"/projects/news-9-1200x800.jpg","uploadedById":null}},{"id":"1fea5d09-4c23-46d2-a339-f4da2155bd4f","title":"Новый партнёр компании в г. Ялта (№23)","slug":"novyi-partner-kompanii-v-g-yalta-23-23","excerpt":"Сегодня мы рады поделиться значимым событием в жизни компании. Подробности — в нашем материале.","content":"## Новый партнёр компании\n\nСегодня мы рады поделиться значимым событием в жизни компании. Объект расположен в городе Ялта и реализован с применением современных строительных технологий.\n\nНад проектом работала команда из более чем 30 специалистов. Сроки реализации были соблюдены, а качество выполненных работ подтверждено независимой экспертизой.\n\n### Ключевые показатели\n\n- Общая площадь: 7774 м²\n- Срок работ: 13 мес.\n- Количество подрядчиков: 12\n\nМы благодарим всех партнёров и заказчиков за доверие. Впереди — новые амбициозные задачи.","imageId":"22ed1627-9e73-4fa7-8a84-f82dd5f746fb","published":true,"publishedAt":"2025-12-07T23:31:05.170Z","createdAt":"2026-05-11T23:31:05.234Z","updatedAt":"2026-05-11T23:31:05.234Z","image":{"id":"22ed1627-9e73-4fa7-8a84-f82dd5f746fb","createdAt":"2026-05-11T23:31:05.233Z","updatedAt":"2026-05-11T23:31:05.233Z","filename":"news-23.webp","originalName":"news-23.webp","mimeType":"image/webp","size":0,"path":"/seed/news-23.webp","url":"/projects/news-23-1200x800.jpg","uploadedById":null}},{"id":"1dc77a5f-5822-4cde-917d-43d62acd35af","title":"Запуск автоматизированной системы управления в г. Керчь (№34)","slug":"zapusk-avtomatizirovannoi-sistemy-upravleniya-v-g-kerch-34-34","excerpt":"Сегодня мы рады поделиться значимым событием в жизни компании. Подробности — в нашем материале.","content":"## Запуск автоматизированной системы управления\n\nСегодня мы рады поделиться значимым событием в жизни компании. Объект расположен в городе Керчь и реализован с применением современных строительных технологий.\n\nНад проектом работала команда из более чем 30 специалистов. Сроки реализации были соблюдены, а качество выполненных работ подтверждено независимой экспертизой.\n\n### Ключевые показатели\n\n- Общая площадь: 11254 м²\n- Срок работ: 20 мес.\n- Количество подрядчиков: 9\n\nМы благодарим всех партнёров и заказчиков за доверие. Впереди — новые амбициозные задачи.","imageId":"eb975b72-e239-403b-912e-c6d7ee39988d","published":true,"publishedAt":"2025-11-21T23:31:05.170Z","createdAt":"2026-05-11T23:31:05.259Z","updatedAt":"2026-05-11T23:31:05.259Z","image":{"id":"eb975b72-e239-403b-912e-c6d7ee39988d","createdAt":"2026-05-11T23:31:05.258Z","updatedAt":"2026-05-11T23:31:05.258Z","filename":"news-34.webp","originalName":"news-34.webp","mimeType":"image/webp","size":0,"path":"/seed/news-34.webp","url":"/projects/news-34-1200x800.jpg","uploadedById":null}},{"id":"256c56c9-89d5-487d-9257-2f4ae34e5b99","title":"Введение в строй инженерных сетей в г. Керчь (№42)","slug":"vvedenie-v-stroi-inzhenernyh-setei-v-g-kerch-42-42","excerpt":"Сегодня мы рады поделиться значимым событием в жизни компании. Подробности — в нашем материале.","content":"## Введение в строй инженерных сетей\n\nСегодня мы рады поделиться значимым событием в жизни компании. Объект расположен в городе Керчь и реализован с применением современных строительных технологий.\n\nНад проектом работала команда из более чем 30 специалистов. Сроки реализации были соблюдены, а качество выполненных работ подтверждено независимой экспертизой.\n\n### Ключевые показатели\n\n- Общая площадь: 2881 м²\n- Срок работ: 8 мес.\n- Количество подрядчиков: 9\n\nМы благодарим всех партнёров и заказчиков за доверие. Впереди — новые амбициозные задачи.","imageId":"a8b2808d-94f8-4d79-bb17-bc8e8e675e45","published":true,"publishedAt":"2025-11-15T23:31:05.170Z","createdAt":"2026-05-11T23:31:05.279Z","updatedAt":"2026-05-11T23:31:05.279Z","image":{"id":"a8b2808d-94f8-4d79-bb17-bc8e8e675e45","createdAt":"2026-05-11T23:31:05.278Z","updatedAt":"2026-05-11T23:31:05.278Z","filename":"news-42.webp","originalName":"news-42.webp","mimeType":"image/webp","size":0,"path":"/seed/news-42.webp","url":"/projects/news-42-1200x800.jpg","uploadedById":null}},{"id":"d4fc3b73-2985-454d-bf66-660609b0ea56","title":"Завершение благоустройства территории в г. Бахчисарай (№35)","slug":"zavershenie-blagoustroistva-territorii-v-g-bahchisarai-35-35","excerpt":"Подведены итоги очередного квартала: показатели превзошли план. Подробности — в нашем материале.","content":"## Завершение благоустройства территории\n\nПодведены итоги очередного квартала: показатели превзошли план. Объект расположен в городе Бахчисарай и реализован с применением современных строительных технологий.\n\nНад проектом работала команда из более чем 30 специалистов. Сроки реализации были соблюдены, а качество выполненных работ подтверждено независимой экспертизой.\n\n### Ключевые показатели\n\n- Общая площадь: 5160 м²\n- Срок работ: 20 мес.\n- Количество подрядчиков: 5\n\nМы благодарим всех партнёров и заказчиков за доверие. Впереди — новые амбициозные задачи.","imageId":"af7e7580-3dfa-40ea-bd6b-699b71d3c01a","published":true,"publishedAt":"2025-11-15T23:31:05.170Z","createdAt":"2026-05-11T23:31:05.263Z","updatedAt":"2026-05-11T23:31:05.263Z","image":{"id":"af7e7580-3dfa-40ea-bd6b-699b71d3c01a","createdAt":"2026-05-11T23:31:05.261Z","updatedAt":"2026-05-11T23:31:05.261Z","filename":"news-35.webp","originalName":"news-35.webp","mimeType":"image/webp","size":0,"path":"/seed/news-35.webp","url":"/projects/news-35-1200x800.jpg","uploadedById":null}},{"id":"5f360ff5-d3ee-478d-aa26-e167cef328e4","title":"Установка систем пожаротушения в г. Севастополь (№14)","slug":"ustanovka-sistem-pozharotusheniya-v-g-sevastopol-14-14","excerpt":"Сегодня мы рады поделиться значимым событием в жизни компании. Подробности — в нашем материале.","content":"## Установка систем пожаротушения\n\nСегодня мы рады поделиться значимым событием в жизни компании. Объект расположен в городе Севастополь и реализован с применением современных строительных технологий.\n\nНад проектом работала команда из более чем 30 специалистов. Сроки реализации были соблюдены, а качество выполненных работ подтверждено независимой экспертизой.\n\n### Ключевые показатели\n\n- Общая площадь: 19419 м²\n- Срок работ: 20 мес.\n- Количество подрядчиков: 9\n\nМы благодарим всех партнёров и заказчиков за доверие. Впереди — новые амбициозные задачи.","imageId":"e258b137-e32b-4699-b03d-657b75c525a5","published":true,"publishedAt":"2025-11-12T23:31:05.170Z","createdAt":"2026-05-11T23:31:05.213Z","updatedAt":"2026-05-11T23:31:05.213Z","image":{"id":"e258b137-e32b-4699-b03d-657b75c525a5","createdAt":"2026-05-11T23:31:05.212Z","updatedAt":"2026-05-11T23:31:05.212Z","filename":"news-14.webp","originalName":"news-14.webp","mimeType":"image/webp","size":0,"path":"/seed/news-14.webp","url":"/projects/news-14-1200x800.jpg","uploadedById":null}},{"id":"d480611c-904d-454d-a27b-dc4a5af6b4d9","title":"Введение в строй инженерных сетей в г. Феодосия (№48)","slug":"vvedenie-v-stroi-inzhenernyh-setei-v-g-feodosiya-48-48","excerpt":"Компания «Ларк Строй» сообщает о завершении важного этапа работ. Подробности — в нашем материале.","content":"## Введение в строй инженерных сетей\n\nКомпания «Ларк Строй» сообщает о завершении важного этапа работ. Объект расположен в городе Феодосия и реализован с применением современных строительных технологий.\n\nНад проектом работала команда из более чем 30 специалистов. Сроки реализации были соблюдены, а качество выполненных работ подтверждено независимой экспертизой.\n\n### Ключевые показатели\n\n- Общая площадь: 1290 м²\n- Срок работ: 10 мес.\n- Количество подрядчиков: 10\n\nМы благодарим всех партнёров и заказчиков за доверие. Впереди — новые амбициозные задачи.","imageId":"1cf1f48e-7e57-41c0-90fd-59e841809597","published":true,"publishedAt":"2025-11-11T23:31:05.170Z","createdAt":"2026-05-11T23:31:05.293Z","updatedAt":"2026-05-11T23:31:05.293Z","image":{"id":"1cf1f48e-7e57-41c0-90fd-59e841809597","createdAt":"2026-05-11T23:31:05.292Z","updatedAt":"2026-05-11T23:31:05.292Z","filename":"news-48.webp","originalName":"news-48.webp","mimeType":"image/webp","size":0,"path":"/seed/news-48.webp","url":"/projects/news-48-1200x800.jpg","uploadedById":null}},{"id":"edcca620-7af2-4d79-8889-b17feca77237","title":"Поставка строительных материалов в г. Бахчисарай (№28)","slug":"postavka-stroitelnyh-materialov-v-g-bahchisarai-28-28","excerpt":"Реализован масштабный проект в рамках стратегического направления. Подробности — в нашем материале.","content":"## Поставка строительных материалов\n\nРеализован масштабный проект в рамках стратегического направления. Объект расположен в городе Бахчисарай и реализован с применением современных строительных технологий.\n\nНад проектом работала команда из более чем 30 специалистов. Сроки реализации были соблюдены, а качество выполненных работ подтверждено независимой экспертизой.\n\n### Ключевые показатели\n\n- Общая площадь: 5504 м²\n- Срок работ: 21 мес.\n- Количество подрядчиков: 12\n\nМы благодарим всех партнёров и заказчиков за доверие. Впереди — новые амбициозные задачи.","imageId":"5aa4148e-9fc8-47f0-8804-813391588093","published":true,"publishedAt":"2025-11-10T23:31:05.170Z","createdAt":"2026-05-11T23:31:05.246Z","updatedAt":"2026-05-11T23:31:05.246Z","image":{"id":"5aa4148e-9fc8-47f0-8804-813391588093","createdAt":"2026-05-11T23:31:05.245Z","updatedAt":"2026-05-11T23:31:05.245Z","filename":"news-28.webp","originalName":"news-28.webp","mimeType":"image/webp","size":0,"path":"/seed/news-28.webp","url":"/projects/news-28-1200x800.jpg","uploadedById":null}}],"pagination":{"page":2,"limit":12,"total":50,"totalPages":5}}