{"items":[{"id":"0ddaadff-e71f-4d75-8ed6-7a755521f171","title":"Запуск нового складского комплекса в г. Ялта (№22)","slug":"zapusk-novogo-skladskogo-kompleksa-v-g-yalta-22-22","excerpt":"Сегодня мы рады поделиться значимым событием в жизни компании. Подробности — в нашем материале.","content":"## Запуск нового складского комплекса\n\nСегодня мы рады поделиться значимым событием в жизни компании. Объект расположен в городе Ялта и реализован с применением современных строительных технологий.\n\nНад проектом работала команда из более чем 30 специалистов. Сроки реализации были соблюдены, а качество выполненных работ подтверждено независимой экспертизой.\n\n### Ключевые показатели\n\n- Общая площадь: 3513 м²\n- Срок работ: 6 мес.\n- Количество подрядчиков: 9\n\nМы благодарим всех партнёров и заказчиков за доверие. Впереди — новые амбициозные задачи.","imageId":"6ae6c033-cfde-44fb-8cc1-cfadbb21fc16","published":true,"publishedAt":"2025-05-26T23:31:05.170Z","createdAt":"2026-05-11T23:31:05.232Z","updatedAt":"2026-05-11T23:31:05.232Z","image":{"id":"6ae6c033-cfde-44fb-8cc1-cfadbb21fc16","createdAt":"2026-05-11T23:31:05.231Z","updatedAt":"2026-05-11T23:31:05.231Z","filename":"news-22.webp","originalName":"news-22.webp","mimeType":"image/webp","size":0,"path":"/seed/news-22.webp","url":"/projects/news-22-1200x800.jpg","uploadedById":null}},{"id":"d8184ba1-dbfb-4852-a254-a6400e1fac30","title":"Обновление парка спецтехники в г. Севастополь (№21)","slug":"obnovlenie-parka-spectehniki-v-g-sevastopol-21-21","excerpt":"Реализован масштабный проект в рамках стратегического направления. Подробности — в нашем материале.","content":"## Обновление парка спецтехники\n\nРеализован масштабный проект в рамках стратегического направления. Объект расположен в городе Севастополь и реализован с применением современных строительных технологий.\n\nНад проектом работала команда из более чем 30 специалистов. Сроки реализации были соблюдены, а качество выполненных работ подтверждено независимой экспертизой.\n\n### Ключевые показатели\n\n- Общая площадь: 9135 м²\n- Срок работ: 10 мес.\n- Количество подрядчиков: 4\n\nМы благодарим всех партнёров и заказчиков за доверие. Впереди — новые амбициозные задачи.","imageId":"749ee724-5fca-4217-b9f5-8c76a5404361","published":true,"publishedAt":"2025-05-16T23:31:05.170Z","createdAt":"2026-05-11T23:31:05.230Z","updatedAt":"2026-05-11T23:31:05.230Z","image":{"id":"749ee724-5fca-4217-b9f5-8c76a5404361","createdAt":"2026-05-11T23:31:05.229Z","updatedAt":"2026-05-11T23:31:05.229Z","filename":"news-21.webp","originalName":"news-21.webp","mimeType":"image/webp","size":0,"path":"/seed/news-21.webp","url":"/projects/news-21-1200x800.jpg","uploadedById":null}}],"pagination":{"page":5,"limit":12,"total":50,"totalPages":5}}